{
  "db": {
    "name": "db",
  "connector": "postgresql",
  "host": "localhost",
  "port": 5432,
  "user": "vicky",
  "password": "fghjkl",
  "database": "vicky"
  },
  "emailDs": {
    "name": "emailDs",
    "connector": "mail",
    "transports": [
      {
        "type": "smtp",
        "host": "smtpout.secureserver.net",
        "secure": true,
        "port": 465,
        "tls": {
          "rejectUnauthorized": false
        },
        "auth": {
          "user": "contact@vicky.buzz",
          "pass": "Pooja@1996"
        }
      }
    ]
  }
}
